id,name,model_id:id,group_id:id,perm_read,perm_write,perm_create,perm_unlink
access_bms_login_user_detail_group_guest_stay_group_hotel_user,bms_login_user_detail group_hotel_user,model_bms_login_user_detail,bms_guest_stay.group_e_guest_hotel_user,1,0,0,0
access_bms_login_user_detail_group_principal_official,bms_login_user_detail group_principal_official,model_bms_login_user_detail,bms_guest_stay.group_e_guest_principal_official,1,0,0,0
access_bms_login_user_detail_group_senior_official,bms_login_user_detail group_senior_official,model_bms_login_user_detail,bms_guest_stay.group_e_guest_senior_official,1,0,0,0
